{
	"handler" : "lb:web:connectblox:exec_inactive",
	"prefix"  : "/exec_inactive",
	"http_method": "POST",
	"parameter" : [ {"key":"workspaces","value":".*"} ],
	"request_protocol"  : "bloxweb_connectblox",
	"request_message"   : "ExecInactiveRequest",
	"response_protocol" : "bloxweb_connectblox",
	"response_message"  : "ExecInactiveResponse"
}