Time:Week:id|Time:Week:label
2021_Wk_01|Feb Wk 1 2021
2021_Wk_02|Feb Wk 2 2021
2021_Wk_03|Feb Wk 3 2021
2021_Wk_04|Feb Wk 4 2021
2021_Wk_05|Mar Wk 1 2021
2021_Wk_06|Mar Wk 2 2021
2021_Wk_07|Mar Wk 3 2021
2021_Wk_08|Mar Wk 4 2021
2021_Wk_09|Mar Wk 5 2021
2021_Wk_10|Apr Wk 1 2021
2021_Wk_11|Apr Wk 2 2021
2021_Wk_12|Apr Wk 3 2021
2021_Wk_13|Apr Wk 4 2021
2021_Wk_14|May Wk 1 2021
2021_Wk_15|May Wk 2 2021
2021_Wk_16|May Wk 3 2021
2021_Wk_17|May Wk 4 2021
2021_Wk_18|Jun Wk 1 2021
2021_Wk_19|Jun Wk 2 2021
2021_Wk_20|Jun Wk 3 2021
2021_Wk_21|Jun Wk 4 2021
2021_Wk_22|Jun Wk 5 2021
2021_Wk_23|Jul Wk 1 2021
2021_Wk_24|Jul Wk 2 2021
2021_Wk_25|Jul Wk 3 2021
2021_Wk_26|Jul Wk 4 2021
2021_Wk_27|Aug Wk 1 2021
2021_Wk_28|Aug Wk 2 2021
2021_Wk_29|Aug Wk 3 2021
2021_Wk_30|Aug Wk 4 2021
2021_Wk_31|Sep Wk 1 2021
2021_Wk_32|Sep Wk 2 2021
2021_Wk_33|Sep Wk 3 2021
2021_Wk_34|Sep Wk 4 2021
2021_Wk_35|Sep Wk 5 2021
2021_Wk_36|Oct Wk 1 2021
2021_Wk_37|Oct Wk 2 2021
2021_Wk_38|Oct Wk 3 2021
2021_Wk_39|Oct Wk 4 2021
2021_Wk_40|Nov Wk 1 2021
2021_Wk_41|Nov Wk 2 2021
2021_Wk_42|Nov Wk 3 2021
2021_Wk_43|Nov Wk 4 2021
2021_Wk_44|Dec Wk 1 2021
2021_Wk_45|Dec Wk 2 2021
2021_Wk_46|Dec Wk 3 2021
2021_Wk_47|Dec Wk 4 2021
2021_Wk_48|Dec Wk 5 2021
2021_Wk_49|Jan Wk 1 2021
2021_Wk_50|Jan Wk 2 2021
2021_Wk_51|Jan Wk 3 2021
2021_Wk_52|Jan Wk 4 2021
2020_Wk_01|Feb Wk 1 2020
2020_Wk_02|Feb Wk 2 2020
2020_Wk_03|Feb Wk 3 2020
2020_Wk_04|Feb Wk 4 2020
2020_Wk_05|Mar Wk 1 2020
2020_Wk_06|Mar Wk 2 2020
2020_Wk_07|Mar Wk 3 2020
2020_Wk_08|Mar Wk 4 2020
2020_Wk_09|Mar Wk 5 2020
2020_Wk_10|Apr Wk 1 2020
2020_Wk_11|Apr Wk 2 2020
2020_Wk_12|Apr Wk 3 2020
2020_Wk_13|Apr Wk 4 2020
2020_Wk_14|May Wk 1 2020
2020_Wk_15|May Wk 2 2020
2020_Wk_16|May Wk 3 2020
2020_Wk_17|May Wk 4 2020
2020_Wk_18|Jun Wk 1 2020
2020_Wk_19|Jun Wk 2 2020
2020_Wk_20|Jun Wk 3 2020
2020_Wk_21|Jun Wk 4 2020
2020_Wk_22|Jun Wk 5 2020
2020_Wk_23|Jul Wk 1 2020
2020_Wk_24|Jul Wk 2 2020
2020_Wk_25|Jul Wk 3 2020
2020_Wk_26|Jul Wk 4 2020
2020_Wk_27|Aug Wk 1 2020
2020_Wk_28|Aug Wk 2 2020
2020_Wk_29|Aug Wk 3 2020
2020_Wk_30|Aug Wk 4 2020
2020_Wk_31|Sep Wk 1 2020
2020_Wk_32|Sep Wk 2 2020
2020_Wk_33|Sep Wk 3 2020
2020_Wk_34|Sep Wk 4 2020
2020_Wk_35|Sep Wk 5 2020
2020_Wk_36|Oct Wk 1 2020
2020_Wk_37|Oct Wk 2 2020
2020_Wk_38|Oct Wk 3 2020
2020_Wk_39|Oct Wk 4 2020
2020_Wk_40|Nov Wk 1 2020
2020_Wk_41|Nov Wk 2 2020
2020_Wk_42|Nov Wk 3 2020
2020_Wk_43|Nov Wk 4 2020
2020_Wk_44|Dec Wk 1 2020
2020_Wk_45|Dec Wk 2 2020
2020_Wk_46|Dec Wk 3 2020
2020_Wk_47|Dec Wk 4 2020
2020_Wk_48|Dec Wk 5 2020
2020_Wk_49|Jan Wk 1 2020
2020_Wk_50|Jan Wk 2 2020
2020_Wk_51|Jan Wk 3 2020
2020_Wk_52|Jan Wk 4 2020
2019_Wk_01|Feb Wk 1 2019
2019_Wk_02|Feb Wk 2 2019
2019_Wk_03|Feb Wk 3 2019
2019_Wk_04|Feb Wk 4 2019
2019_Wk_05|Mar Wk 1 2019
2019_Wk_06|Mar Wk 2 2019
2019_Wk_07|Mar Wk 3 2019
2019_Wk_08|Mar Wk 4 2019
2019_Wk_09|Mar Wk 5 2019
2019_Wk_10|Apr Wk 1 2019
2019_Wk_11|Apr Wk 2 2019
2019_Wk_12|Apr Wk 3 2019
2019_Wk_13|Apr Wk 4 2019
2019_Wk_14|May Wk 1 2019
2019_Wk_15|May Wk 2 2019
2019_Wk_16|May Wk 3 2019
2019_Wk_17|May Wk 4 2019
2019_Wk_18|Jun Wk 1 2019
2019_Wk_19|Jun Wk 2 2019
2019_Wk_20|Jun Wk 3 2019
2019_Wk_21|Jun Wk 4 2019
2019_Wk_22|Jun Wk 5 2019
2019_Wk_23|Jul Wk 1 2019
2019_Wk_24|Jul Wk 2 2019
2019_Wk_25|Jul Wk 3 2019
2019_Wk_26|Jul Wk 4 2019
2019_Wk_27|Aug Wk 1 2019
2019_Wk_28|Aug Wk 2 2019
2019_Wk_29|Aug Wk 3 2019
2019_Wk_30|Aug Wk 4 2019
2019_Wk_31|Sep Wk 1 2019
2019_Wk_32|Sep Wk 2 2019
2019_Wk_33|Sep Wk 3 2019
2019_Wk_34|Sep Wk 4 2019
2019_Wk_35|Sep Wk 5 2019
2019_Wk_36|Oct Wk 1 2019
2019_Wk_37|Oct Wk 2 2019
2019_Wk_38|Oct Wk 3 2019
2019_Wk_39|Oct Wk 4 2019
2019_Wk_40|Nov Wk 1 2019
2019_Wk_41|Nov Wk 2 2019
2019_Wk_42|Nov Wk 3 2019
2019_Wk_43|Nov Wk 4 2019
2019_Wk_44|Dec Wk 1 2019
2019_Wk_45|Dec Wk 2 2019
2019_Wk_46|Dec Wk 3 2019
2019_Wk_47|Dec Wk 4 2019
2019_Wk_48|Dec Wk 5 2019
2019_Wk_49|Jan Wk 1 2019
2019_Wk_50|Jan Wk 2 2019
2019_Wk_51|Jan Wk 3 2019
2019_Wk_52|Jan Wk 4 2019
2018_Wk_01|Feb Wk 1 2018
2018_Wk_02|Feb Wk 2 2018
2018_Wk_03|Feb Wk 3 2018
2018_Wk_04|Feb Wk 4 2018
2018_Wk_05|Mar Wk 1 2018
2018_Wk_06|Mar Wk 2 2018
2018_Wk_07|Mar Wk 3 2018
2018_Wk_08|Mar Wk 4 2018
2018_Wk_09|Mar Wk 5 2018
2018_Wk_10|Apr Wk 1 2018
2018_Wk_11|Apr Wk 2 2018
2018_Wk_12|Apr Wk 3 2018
2018_Wk_13|Apr Wk 4 2018
2018_Wk_14|May Wk 1 2018
2018_Wk_15|May Wk 2 2018
2018_Wk_16|May Wk 3 2018
2018_Wk_17|May Wk 4 2018
2018_Wk_18|Jun Wk 1 2018
2018_Wk_19|Jun Wk 2 2018
2018_Wk_20|Jun Wk 3 2018
2018_Wk_21|Jun Wk 4 2018
2018_Wk_22|Jun Wk 5 2018
2018_Wk_23|Jul Wk 1 2018
2018_Wk_24|Jul Wk 2 2018
2018_Wk_25|Jul Wk 3 2018
2018_Wk_26|Jul Wk 4 2018
2018_Wk_27|Aug Wk 1 2018
2018_Wk_28|Aug Wk 2 2018
2018_Wk_29|Aug Wk 3 2018
2018_Wk_30|Aug Wk 4 2018
2018_Wk_31|Sep Wk 1 2018
2018_Wk_32|Sep Wk 2 2018
2018_Wk_33|Sep Wk 3 2018
2018_Wk_34|Sep Wk 4 2018
2018_Wk_35|Sep Wk 5 2018
2018_Wk_36|Oct Wk 1 2018
2018_Wk_37|Oct Wk 2 2018
2018_Wk_38|Oct Wk 3 2018
2018_Wk_39|Oct Wk 4 2018
2018_Wk_40|Nov Wk 1 2018
2018_Wk_41|Nov Wk 2 2018
2018_Wk_42|Nov Wk 3 2018
2018_Wk_43|Nov Wk 4 2018
2018_Wk_44|Dec Wk 1 2018
2018_Wk_45|Dec Wk 2 2018
2018_Wk_46|Dec Wk 3 2018
2018_Wk_47|Dec Wk 4 2018
2018_Wk_48|Dec Wk 5 2018
2018_Wk_49|Jan Wk 1 2018
2018_Wk_50|Jan Wk 2 2018
2018_Wk_51|Jan Wk 3 2018
2018_Wk_52|Jan Wk 4 2018